%YAML 1.1
%TAG !u! tag:unity3d.com,2011:
--- !u!114 &11400000
MonoBehaviour:
  m_ObjectHideFlags: 0
  m_CorrespondingSourceObject: {fileID: 0}
  m_PrefabInstance: {fileID: 0}
  m_PrefabAsset: {fileID: 0}
  m_GameObject: {fileID: 0}
  m_Enabled: 1
  m_EditorHideFlags: 0
  m_Script: {fileID: 11500000, guid: bab0317fc70f0744eb551c20e08b6e3a, type: 3}
  m_Name: Drilling_Machine
  m_EditorClassIdentifier: 
  id: 4
  Materials:
  - Item: {fileID: 4178694444605902120, guid: 5215df5337d6fb24fbfb564426f9a571, type: 3}
    Amount: 1
  - Item: {fileID: 4859811906910402413, guid: 40d06f26d9605184a8cae7ddac707ca1, type: 3}
    Amount: 3
  - Item: {fileID: 1730664886798956511, guid: 7590771e7533c5c4a98bad85c2ecc5d9, type: 3}
    Amount: 3
  Results:
    Item: {fileID: 693511157974531645, guid: 5eb5ae76c692dd644a6b76a59e7f6784, type: 3}
    Amount: 1
  TimeCrafting: 5
