%YAML 1.1
%TAG !u! tag:unity3d.com,2011:
--- !u!1 &4362810268098781784
GameObject:
  m_ObjectHideFlags: 0
  m_CorrespondingSourceObject: {fileID: 0}
  m_PrefabInstance: {fileID: 0}
  m_PrefabAsset: {fileID: 0}
  serializedVersion: 6
  m_Component:
  - component: {fileID: 4362810268098781798}
  - component: {fileID: 4362810268098781785}
  m_Layer: 0
  m_Name: Objects_ID 1
  m_TagString: ID
  m_Icon: {fileID: 0}
  m_NavMeshLayer: 0
  m_StaticEditorFlags: 0
  m_IsActive: 1
--- !u!4 &4362810268098781798
Transform:
  m_ObjectHideFlags: 0
  m_CorrespondingSourceObject: {fileID: 0}
  m_PrefabInstance: {fileID: 0}
  m_PrefabAsset: {fileID: 0}
  m_GameObject: {fileID: 4362810268098781784}
  m_LocalRotation: {x: 0, y: 0, z: 0, w: 1}
  m_LocalPosition: {x: -30.18249, y: -9.052694, z: -49.45429}
  m_LocalScale: {x: 1, y: 1, z: 1}
  m_Children: []
  m_Father: {fileID: 0}
  m_RootOrder: 0
  m_LocalEulerAnglesHint: {x: 0, y: 0, z: 0}
--- !u!114 &4362810268098781785
MonoBehaviour:
  m_ObjectHideFlags: 0
  m_CorrespondingSourceObject: {fileID: 0}
  m_PrefabInstance: {fileID: 0}
  m_PrefabAsset: {fileID: 0}
  m_GameObject: {fileID: 4362810268098781784}
  m_Enabled: 1
  m_EditorHideFlags: 0
  m_Script: {fileID: 11500000, guid: 5f1de15997d276a48b81b935952bc2aa, type: 3}
  m_Name: 
  m_EditorClassIdentifier: 
  resources:
  - {fileID: 5147388728239791733, guid: a165890527d320b408f6ce6f891c0ca6, type: 3}
  - {fileID: 5780192690060342309, guid: e77c36568bebda74b8249388b7e04106, type: 3}
  - {fileID: 1459052164103945311, guid: 24530b72cffe75e48a7ff8cbfd6c2297, type: 3}
  - {fileID: 1513855557226528395, guid: b46f6f036ed56f54aac5cd146ad88fbb, type: 3}
  buildings:
  - {fileID: 3223942771354807405, guid: 97b65da91272a6a4c8de41d9bf9ac6f5, type: 3}
  - {fileID: 693511157974531645, guid: 5eb5ae76c692dd644a6b76a59e7f6784, type: 3}
  - {fileID: 1533003013303804570, guid: fdcca8d7bd4fe544baa80fb842a383c6, type: 3}
  - {fileID: 4365650571955881599, guid: 18e8cecfbeb6a134c95bf4a89097f765, type: 3}
  - {fileID: 3540385633087006859, guid: be54c2400d8e84f4396988fbf94a8289, type: 3}
  - {fileID: 0}
  - {fileID: 4668677489635113594, guid: 3b7a533bf580fdc419e187128f5114a4, type: 3}
  recipes: []
