%YAML 1.1
%TAG !u! tag:unity3d.com,2011:
--- !u!114 &11400000
MonoBehaviour:
  m_ObjectHideFlags: 0
  m_CorrespondingSourceObject: {fileID: 0}
  m_PrefabInstance: {fileID: 0}
  m_PrefabAsset: {fileID: 0}
  m_GameObject: {fileID: 0}
  m_Enabled: 1
  m_EditorHideFlags: 0
  m_Script: {fileID: 11500000, guid: 352a4a4515ec4f947b63b98acfaf6faa, type: 3}
  m_Name: Iron
  m_EditorClassIdentifier: 
  tiles:
  - {fileID: 7646980812989210763, guid: 3477842d802d9df41a3e6895083d3ccc, type: 3}
  - {fileID: -3962658375827102362, guid: 3477842d802d9df41a3e6895083d3ccc, type: 3}
  - {fileID: 4654370640168791483, guid: 3477842d802d9df41a3e6895083d3ccc, type: 3}
  minHeight: 0
  minMoisture: 0.5
  minHeat: 0
  Nature: 1
  Ore: 0
